%YAML 1.1
%TAG !u! tag:unity3d.com,2011:
--- !u!1045 &1
EditorBuildSettings:
  m_ObjectHideFlags: 0
  serializedVersion: 2
  m_Scenes:
  - enabled: 1
    path: Assets/Scenes/Boot.unity
    guid: f58273d3e715444e28f90cc577b4c6bf
  - enabled: 1
    path: Assets/Scenes/MainScene.unity
    guid: 14bd18647eb6b40b5ab8fc009ad6a979
  m_configObjects: {}
